Country,ASIN,AmazonOrderId,PurchaseDate,Tracking Number
US,B073V6NHB2,114-7886868-7181047,7/13/2017,9400110895343022602551
US,B073V6NHB2,114-8429371-3815468,7/13/2017,9400110895343022602544
US,B073V6NHB2,111-6559909-6955437,7/13/2017,9400110895343022602537
US,B073V6NHB2,113-4044998-2492217,7/13/2017,9400110895343022602506
US,B073V6NHB2,112-6268605-1536200,7/13/2017,9400110895343022602490
US,B073V6NHB2,112-9552814-8477862,7/13/2017,9400110895343022602483
US,B073V6NHB2,114-8201456-0165066,7/13/2017,9400110895343022602476
US,B073V6NHB2,111-4357998-0621859,7/13/2017,9400110895343022602469
US,B073V6NHB2,112-8720688-2411460,7/13/2017,9400110895343022602445
US,B073V6NHB2,111-3919698-6465062,7/13/2017,9400110895343022602421
US,B073V7QDCD,112-7377679-2213836,7/13/2017,9400110895343022602414
US,B073V7QDCD,111-4407206-9541056,7/13/2017,9400110895343022602407
US,B073V7QDCD,113-6931201-2082621,7/13/2017,9400110895343022602278
US,B073V7QDCD,113-1232463-1856225,7/13/2017,9400110895343022602261
US,B073V7QDCD,114-6801970-8196252,7/13/2017,9400110895343022602254
US,B073SHXHTD,111-8610620-2230651,7/13/2017,9400110895343022602247
US,B073SHXHTD,112-2254636-1357068,7/13/2017,9400110895343022602223
US,B073SHXHTD,111-4929524-7494627,7/13/2017,9400110895343022602216
US,B073SHXHTD,113-4720848-9125830,7/13/2017,9400110895343022602179
US,B073SHXHTD,111-7281838-7019402,7/13/2017,9400110895343022602162
US,B073SHXHTD,113-8792815-8179422,7/13/2017,9400110895343022602155
US,B073SHXHTD,111-1289099-4569021,7/13/2017,9400110895343022601868
US,B073SHXHTD,113-8301860-0931438,7/13/2017,9400110895343022601622
US,B073SHXHTD,111-7360373-3573831,7/13/2017,9400110895343022601608
US,B073SHXHTD,114-6906217-7752254,7/13/2017,9400110895343022601585
US,B073SH4Q4X,114-5758561-0408266,7/13/2017,9400110895343022601554
US,B073SH4Q4X,114-3443539-6366662,7/13/2017,9400110895343022601547
US,B073SH4Q4X,114-8142052-3447421,7/13/2017,9400110895343022601516
US,B073SH4Q4X,111-1458489-3033869,7/13/2017,9400110895343022601509
US,B073SH4Q4X,114-4384080-1932232,7/13/2017,9400110895343022601493
US,B071FM8JYL,113-5516805-5250667,7/13/2017,9400110895343022601486
US,B071FM8JYL,112-8108500-7810647,7/13/2017,9400110895343022601479
US,B071FM8JYL,114-7281185-3158643,7/13/2017,9400110895343022601370
US,B071FM8JYL,113-2057390-2773820,7/13/2017,9400110895343022601356
US,B071FM8JYL,111-4035359-0188231,7/13/2017,9400110895343022601332
US,B071FM8JYL,114-0712547-5596204,7/13/2017,9400110895343022601271
US,B071FM8JYL,113-2538775-6620264,7/13/2017,9400110895343022601264
US,B071FM8JYL,113-0546841-8865031,7/13/2017,9400110895343022601226
US,B071FM8JYL,111-5438712-6291424,7/13/2017,9400110895343022601158
US,B07237Z7CR,114-5459461-8257828,7/13/2017,9400110895343022601110
US,B07237Z7CR,111-5733402-9352247,7/13/2017,9400110895343022601059
US,B07237Z7CR,113-7580288-4086657,7/13/2017,9400110895343022601042
US,B07237Z7CR,112-4049063-0282612,7/13/2017,9400110895343022601035
US,B07237Z7CR,114-1552248-3057829,7/13/2017,9400110895343022601028
US,B07237Z7CR,113-6558992-7297058,7/13/2017,9400110895343022601011
US,B07237Z7CR,114-9791169-6532235,7/13/2017,9400110895343022601004
US,B07237Z7CR,111-1311485-7016238,7/13/2017,9400110895343022600991
US,B07237Z7CR,112-5094038-1634631,7/13/2017,9400110895343022600977
US,B07237Z7CR,111-0609572-2158638,7/13/2017,9400110895343022600960
US,B071F45DZD,113-7899213-2764260,7/13/2017,9400110895343022600953
US,B071F45DZD,112-3904963-9052238,7/13/2017,9400110895343022600946
US,B071F45DZD,113-3109377-5267406,7/13/2017,9400110895343022600939
US,B071F45DZD,112-4262776-5008202,7/13/2017,9400110895343022600922
US,B071F45DZD,112-5658006-1607448,7/13/2017,9400110895343022600915
US,B072HK78ZX,111-5918612-4924231,7/13/2017,9400110895343022600908
US,B072HK78ZX,113-9703537-2154647,7/13/2017,9400110895343022600892
US,B072HK78ZX,111-0970203-9978626,7/13/2017,9400110895343022600885
US,B072HK78ZX,112-6026511-9072217,7/13/2017,9400110895343022600878
US,B072HK78ZX,113-0308068-7655469,7/13/2017,9400110895343022600854
US,B0711HM9XR,114-3761389-7353848,7/13/2017,9400110895343022600533
US,B0711HM9XR,113-9293638-5321839,7/13/2017,9400110895343022600519
US,B0711HM9XR,114-6595785-5207414,7/13/2017,9400110895343022600502
US,B0711HM9XR,112-7851923-2836217,7/13/2017,9400110895343022600496
US,B0711HM9XR,111-3765885-0189033,7/13/2017,9400110895343022600489
US,B071W579PL,112-6961372-2160226,7/13/2017,9400110895343022600472
US,B071W579PL,113-2296282-7887444,7/13/2017,9400110895343022600465
US,B071W579PL,111-8640095-1805031,7/13/2017,9400110895343022600458
US,B071W579PL,112-8462191-7249807,7/13/2017,9400110895343022600441
US,B071W579PL,112-3326680-3513818,7/13/2017,9400110895343022600434
US,B072KJZYXN,112-6452093-8319450,7/13/2017,9400110895343022600427
US,B072KJZYXN,111-1937623-0907410,7/13/2017,9400110895343022600410
US,B072KJZYXN,113-9340682-8548200,7/13/2017,9400110895343022600403
US,B072KJZYXN,111-0869860-7389804,7/13/2017,9400110895343022600397
US,B072KJZYXN,112-6279877-9034655,7/13/2017,9400110895343022600342
US,B073BZVLLY,111-8474816-0665015,7/13/2017,9400110895343022600328
US,B073BZVLLY,111-1566338-4178650,7/13/2017,9400110895343022600311
US,B073BZVLLY,113-1916823-1572252,7/13/2017,9400110895343022600304
US,B073BZVLLY,113-7139949-0125807,7/13/2017,9400110895343022600298
US,B073BZVLLY,112-7732471-6857018,7/13/2017,9400110895343022600274
US,B073MNMMFD,113-8737476-7729813,7/13/2017,9400110895343022600212
US,B073MNMMFD,113-6410802-4118602,7/13/2017,9400110895343022600205
US,B073MNMMFD,113-2162648-6566624,7/13/2017,9400110895343022600151
US,B073MNMMFD,111-0284357-4964266,7/13/2017,9400110895343022600144
US,B073MNMMFD,113-1423469-6114665,7/13/2017,9400110895343022600137
US,B06ZYZ29X6,113-0278622-3559437,7/13/2017,9400110895343022599882
US,B06ZYZ29X6,114-8324625-3936206,7/13/2017,9400110895343022600052
US,B06ZYZ29X6,111-2933143-2970602,7/13/2017,9400110895343022600045
US,B06ZYZ29X6,113-8825814-7536211,7/13/2017,9400110895343022600038
US,B06ZYZ29X6,114-0450203-0207441,7/13/2017,9400110895343022599899
US,B073SJGGLH,113-6899879-1632203,7/13/2017,9400110895343022599523
US,B073SJGGLH,112-3339346-4117806,7/13/2017,9400110895343022599516
US,B073SJGGLH,112-2017765-0831427,7/13/2017,9400110895343022599387
US,B073SJGGLH,112-5727106-2141828,7/13/2017,9400110895343022599363
US,B073SJGGLH,114-8156103-3405836,7/13/2017,9400110895343022599356
US,B073SJP5HY,112-0314870-2471458,7/13/2017,9400110895343022599349
US,B073SJP5HY,114-0040923-6761835,7/13/2017,9400110895343022599332
US,B073SJP5HY,114-1165860-0549838,7/13/2017,9400110895343022599318
US,B073SJP5HY,114-1727434-3121007,7/13/2017,9400110895343022599295
US,B073SJP5HY,111-6013909-8177837,7/13/2017,9400110895343022599271